0.13518280094366905, 0.001081112834863012
0.13530929451615917, 0.0017500962147050216
0.13530929451615917, 0.0014446255971891709
0.13530929451615917, 0.0013125081111951887
0.13530929451615917, 0.001192473361475112
0.13530929451615917, 0.0015900420715524311
0.1353837577834907, 0.002008425955238209
0.13546757794253025, 0.002740378748125435
0.13546757794253025, 0.002489758828626488
0.13562604652723173, 0.004891751753304603
0.13562604652723173, 0.0033331216922539994
0.13562604652723173, 0.00555907016704238
0.13562604652723173, 0.004444379129552996
0.13562604652723173, 0.003668634787172399
0.13562604652723173, 0.00403792073746639
0.13575295485453504, 0.003019495332784784
0.13578470048685998, 0.0068157530109882345
0.1358905728864251, 0.0062716482120335785
0.13594354003826467, 0.009137740991345086
0.13594354003826467, 0.008302053620313011
0.135985928624059, 0.01036015821361918
0.13607074545135237, 0.007509959862362354
0.13610256539854912, 0.012412059259510184
0.13626177678507076, 0.01499111897556018
0.13626177678507076, 0.013620113951738538
0.13636137846477733, 0.01712817807437772
0.13658075850752618, 0.019748382665783288
0.13658075850752618, 0.021704697281684747
0.1366206836907459, 0.024783833737531857
0.13698053593978862, 0.03410762555264389
0.13702858779931112, 0.029753795569707534
0.1372209638592645, 0.044936822458622766
0.1372209638592645, 0.03930622006684356
0.1376065265954364, 0.05042313414825458
0.13762261519861627, 0.05624772784994645
0.13775676006418316, 0.06212349093911008
0.13794003935786806, 0.06904025367482419
0.13837709858621822, 0.08240338987006218
0.1384834050174233, 0.09572031609942004
0.13897673292390986, 0.11097235226435381
0.139426120261054, 0.12838312044234515
0.1395506515666319, 0.1426789071829395
0.14005733267475093, 0.1604532723198821
0.14007370781990996, 0.1789814193930848
0.14073626892454272, 0.1995565411435879
0.14118759431029418, 0.22956539033638146
0.14186374563690896, 0.26503732506361466
0.14265181819031145, 0.30542571600768487
0.14327174535898374, 0.3474073854913143
0.14395861333077123, 0.3844688005629319
0.14495894379761903, 0.4306908830320463
0.14622023323372288, 0.48251853649509
0.1473486710492399, 0.5342251089809756
0.14927170060958314, 0.5922055034388618
0.15152228309793606, 0.6488096986473852
0.1546000287196296, 0.701118154278699
0.15862797102933326, 0.7648308424774709
0.1627608571698024, 0.8007489005161422
0.16700142134296178, 0.8264773365745788
0.17135246898751208, 0.844622252197575
0.1758168786349298, 0.8583894938863993
0.1803976038138233, 0.8689305306872867
0.18509767500390445, 0.8768165755647596
0.18992020164086962, 0.8819733787690743
0.19486837417351527, 0.8878639944851351
0.19994546617444964, 0.8895532664370605
0.20515483650579697, 0.8947849776781676
0.21049993154132654, 0.8954221539429884
0.2159842874464776, 0.8953498062351416
0.22161153251778715, 0.8952774643727957
0.22738538958326984, 0.895205128355478
0.2333096784653365, 0.8951327981827165
0.2393883185078823, 0.8950604738540389
0.24562533116921484, 0.894988155368973
0.2520248426825385, 0.8949158427270467
0.25859108678575515, 0.8948435359277879
0.2653284075223866, 0.8947712349707245
0.2722412621154725, 0.8946989398553844
0.27933422391634444, 0.8946266505812959
0.28661198543022703, 0.8945543671479866
0.29407936142066876, 0.8937733619084542
0.30174129209485456, 0.8891084566972387
0.3096028463719087, 0.8865736143964011
0.3176692252363502, 0.8861507096599575
0.32594576517891877, 0.8804781045277416
0.3344379417270476, 0.8786640618052765
0.3431513730673195, 0.8747711271384568
0.3520918237623023, 0.870895440178672
0.3612652085642213, 0.8663499425721665
0.3706775963279951, 0.8631955040538432
0.38033521402621995, 0.8569902842831179
0.39024445086876053, 0.8531933756216221
0.40041186252967276, 0.847731743566753
0.41084417548425445, 0.8416376875264382
0.4215482914590932, 0.836250028053073
0.43253129199805596, 0.8302385101721588
0.44380044314724043, 0.8242702070547963
0.4553632002619874, 0.8176964064762119
0.46722721293913644, 0.8108536098752107
0.4794003300777847, 0.8037494684709768
0.4918906050718993, 0.7960763109951156
0.5047063011382174, 0.788476406874882
0.5178558967829593, 0.7803302851002439
0.531348091410972, 0.7722683247531243
0.5451918110810108, 0.7639868103765969
0.5593962144109715, 0.7542978919139723
0.5739706986369757, 0.7450270620328997
0.588924905830318, 0.7338315075379522
0.6042687292763932, 0.7225177815967229
0.6200123200198157, 0.7105331777161682
0.6361660935800674, 0.6981937252290519
0.652740736842114, 0.6857967142321484
0.6697472151265492, 0.673086091297316
0.6871967794439449, 0.6603492844662077
0.7051009739382041, 0.647083675222936
0.7234716435238455, 0.634587360325031
0.7423209417222648, 0.6215928759236649
0.7616613387021685, 0.6083820569792058
0.7815056295294859, 0.5949802135563984
0.8018669426322284, 0.5777373824980155
0.82275874848589, 0.5567857536305003
0.8441948685251376, 0.5338364024260555
0.8661894842876852, 0.5100105566840003
0.888311950600256, 0.4763920604668593
0.9071867516284254, 0.45042557198803423
0.9291312907607971, 0.42694624936360803
0.953338836311206, 0.4016349148344498
0.9781770841825916, 0.37962531928627324
0.9943191250424197, 0.36669157233242017
