0.2731950161308264, 1.9511261462316107e-8
0.42827344532206024, 2.153216319349708e-8
0.5523695627989765, 2.2616544073527248e-8
0.7228835243074868, 2.6882266051762985e-8
0.8857492490822115, 2.894043361880643e-8
1.071921237067527, 3.039206288152261e-8
1.2193236177550335, 3.113972305522494e-8
1.4055512292802312, 3.112178082499073e-8
1.6227889642896876, 3.188050130484585e-8
1.7547001891200353, 3.186748879710452e-8
1.933140505061742, 3.264830890065705e-8
2.1271276004004895, 3.2628713871093797e-8
2.2746134163978198, 3.103818701283589e-8
2.4996384469907666, 3.101657880689198e-8
2.732395149627322, 3.1771208574833557e-8
2.8798253420847697, 3.175671538950672e-8
3.0660807653799087, 3.096225230777418e-8
3.2911057959728556, 3.094069696615332e-8
3.4462954722438535, 3.092583995728103e-8
3.609244632328401, 3.091024777586351e-8
3.7955000556235405, 3.0136960916566875e-8
3.9351707642674385, 3.0123936637794116e-8
4.098119924351986, 3.010874875976994e-8
4.26098564912671, 3.2413943197705126e-8
4.454833685615753, 3.6663570709429975e-8
4.571003448659473, 4.467865825829726e-8
4.687117588163311, 5.7209866811625916e-8
4.75667482478585, 7.326631140379397e-8
4.833880298142174, 1.0359485601421455e-7
4.903298475915007, 1.501534135195121e-7
4.949521637557014, 2.0207162775194067e-7
4.980170208032039, 2.85760225521631e-7
