0.2816776059628434, 1.0249532454720587e-8
0.4212370675269774, 1.1311683047444531e-8
0.576315496718211, 1.2483303852039986e-8
0.7391255979530537, 1.4121282839838792e-8
0.9019913227277782, 1.5202440443518492e-8
1.088191122483035, 1.5574557997930715e-8
1.28988207809545, 1.635497997405499e-8
1.4605350984536654, 1.717615777292136e-8
1.6235120703081547, 1.6747665472194886e-8
1.8097396818333515, 1.6738015724531594e-8
1.9959394815886076, 1.714772030454737e-8
2.1589442652130377, 1.631105012532826e-8
2.3141895650239177, 1.5515575285734248e-8
2.4693514295249748, 1.5896884551262528e-8
2.6167816219824225, 1.5889632812841024e-8
2.802981421737679, 1.627857111026705e-8
2.965930581822227, 1.627036378479683e-8
3.121148069863166, 1.5864849241387927e-8
3.307375681388364, 1.5855708158880057e-8
3.4315274224051615, 1.584961703014626e-8
3.594504394259651, 1.5454217840370114e-8
3.7341472911336075, 1.5834779705239352e-8
3.889336967404606, 1.5827176209337857e-8
4.029007676048504, 1.5820336184701407e-8
4.145399933251752, 1.5814638422319623e-8
4.331571921237067, 1.660788817854296e-8
4.509789743019246, 2.0741925283973838e-8
4.6414228501501835, 2.6558223478605333e-8
4.726499054399823, 3.401038537620761e-8
4.81154744687952, 4.464540947518424e-8
4.865530092335076, 6.008091128883665e-8
4.919484926020692, 8.28798464114616e-8
4.950244743575482, 1.0615353851092017e-7
4.980948937590388, 1.4286487464409846e-7
